IS415-HealthGeo-Cambodia - Spatial Autocorrelation
…
Then, we compute Local Moran’s I:

lisa <- wm_q %>% 
          mutate(local_moran = local_moran(
            FACILITIES_SUM, nb, wt, nsim = 99),
            .before = 1) %>%
          unnest(local_moran)
lisa

Simple feature collection with 24 features and 28 fields
Geometry type: MULTIPOLYGON
Dimension:     XY
Bounding box:  xmin: 211598 ymin: 1096586 xmax: 784872.1 ymax: 1625374
Projected CRS: WGS 84 / UTM zone 48N
# A tibble: 24 × 29
         ii      eii  var_ii    z_ii   p_ii p_ii_sim p_folded_sim skewness
      <dbl>    <dbl>   <dbl>   <dbl>  <dbl>    <dbl>        <dbl>    <dbl>
 1  0.214   -0.0872  0.166    0.741  0.459      0.48         0.24   0.669 
 2 -0.00247 -0.0501  0.320    0.0841 0.933      0.82         0.41   0.536 
 3 -0.0589   0.0139  0.00451 -1.08   0.279      0.28         0.14   0.283 
 4  1.48    -0.298   1.28     1.58   0.115      0.18         0.09   0.231 
 5 -0.207   -0.00595 0.0135  -1.73   0.0830     0.12         0.06  -0.0935
 6  0.0298  -0.00979 0.00389  0.634  0.526      0.48         0.24   0.235 
 7  0.0373  -0.00544 0.00432  0.650  0.516      0.54         0.27   0.155 
 8  1.09    -0.0190  0.289    2.06   0.0390     0.08         0.04   0.424 
 9  0.213   -0.0651  0.206    0.612  0.541      0.64         0.33  -0.183 
10 -0.181    0.131   1.37    -0.267  0.789      0.76         0.38  -1.34  
# ℹ 14 more rows
# ℹ 21 more variables: kurtosis <dbl>, mean <fct>, median <fct>, pysal <fct>,
#   nb <nb>, wt <list>, ID_0 <dbl>, ISO <chr>, NAME_0 <chr>, ID_1 <dbl>,
#   NAME_1 <chr>, HASC_1 <chr>, CCN_1 <dbl>, CCA_1 <chr>, TYPE_1 <chr>,
#   ENGTYPE_1 <chr>, NL_NAME_1 <chr>, VARNAME_1 <chr>, PROVINCE <chr>,
#   FACILITIES_SUM <int>, geometry <MULTIPOLYGON [m]>
…
HCSA <- wm_idw %>%
  mutate(local_Gi = local_gstar_perm(
    FACILITIES_SUM, nb, wt, nsim = 99),
    .before = 1) %>%
  unnest(local_Gi)

HCSA

Simple feature collection with 24 features and 24 fields
Geometry type: MULTIPOLYGON
Dimension:     XY
Bounding box:  xmin: 211598 ymin: 1096586 xmax: 784872.1 ymax: 1625374
Projected CRS: WGS 84 / UTM zone 48N
# A tibble: 24 × 25
   gi_star   e_gi   var_gi p_value  p_sim p_folded_sim skewness kurtosis nb   
     <dbl>  <dbl>    <dbl>   <dbl>  <dbl>        <dbl>    <dbl>    <dbl> <nb> 
 1   0.867 0.0451 0.000137   0.739 0.460          0.46     0.23    0.595 <int>
 2   0.489 0.0431 0.000132   0.396 0.692          0.64     0.32    1.40  <int>
 3  -0.867 0.0424 0.000154  -0.811 0.417          0.4      0.2     0.934 <int>
 4   2.52  0.0518 0.000101   1.70  0.0893         0.12     0.06    0.523 <int>
 5   1.89  0.0423 0.000110   1.89  0.0590         0.1      0.05    0.252 <int>
 6   0.526 0.0431 0.000117   0.336 0.737          0.7      0.35    0.500 <int>
 7   0.706 0.0428 0.000115   0.474 0.636          0.66     0.33    0.559 <int>
 8   2.68  0.0466 0.000103   2.08  0.0378         0.08     0.04    0.595 <int>
 9  -0.908 0.0362 0.000126  -0.494 0.621          0.72     0.35    0.632 <int>
10  -0.795 0.0235 0.000237   0.114 0.909          0.78     0.42    1.14  <int>
# ℹ 14 more rows
# ℹ 16 more variables: wts <list>, ID_0 <dbl>, ISO <chr>, NAME_0 <chr>,
#   ID_1 <dbl>, NAME_1 <chr>, HASC_1 <chr>, CCN_1 <dbl>, CCA_1 <chr>,
#   TYPE_1 <chr>, ENGTYPE_1 <chr>, NL_NAME_1 <chr>, VARNAME_1 <chr>,
#   PROVINCE <chr>, FACILITIES_SUM <int>, geometry <MULTIPOLYGON [m]>
…
